…
`fvcom` files have data constructed on a triangular mesh and the stored variables are either provided in terms of the nodes that form the bounds of each triangle or the centroid of triangle. In the `fvcom` file these are denoted by the `node` and `nele` dimensions respectively. 

Within this package we have only built functionality to extract the variables associated with the nodes. To see which variables are available and whether they are recorded at the `node` or `nele` level, we can use


``` r
nc_obj <- ncdf4::nc_open(fvcom_file)
collect_variables(nc_obj, nodes = TRUE)
```

```
## # A tibble: 53 × 3
##    name          longname             node_or_elem
##  * <chr>         <chr>                <chr>       
##  1 nprocs        number of processors <NA>        
##  2 partition     partition            nele        
##  3 fvcom_mesh    fvcom_mesh           <NA>        
##  4 lon           nodal longitude      node        
##  5 lat           nodal latitude       node        
##  6 lonc          zonal longitude      nele        
##  7 latc          zonal latitude       nele        
##  8 siglay_center Sigma Layers         nele        
##  9 siglev_center Sigma Levels         nele        
## 10 h_center      Bathymetry           nele        
## # ℹ 43 more rows
```

To extract the variable values themselves, we can choose one of the variables above that are recorded at the `node` level and run


``` r
extract_nodes_fvcom(nc_obj, nc_var_name = "precip")
```

```
## # A tibble: 2,399,976 × 3
##           value date_time            node
##           <dbl> <dttm>              <int>
##  1 0.0000000150 2020-01-01 00:00:00     1
##  2 0.0000000162 2020-01-01 00:00:00     2
##  3 0.0000000172 2020-01-01 00:00:00     3
##  4 0.0000000182 2020-01-01 00:00:00     4
##  5 0.0000000192 2020-01-01 00:00:00     5
##  6 0.0000000195 2020-01-01 00:00:00     6
##  7 0.0000000198 2020-01-01 00:00:00     7
##  8 0.0000000202 2020-01-01 00:00:00     8
##  9 0.0000000205 2020-01-01 00:00:00     9
## 10 0.0000000199 2020-01-01 00:00:00    10
## # ℹ 2,399,966 more rows
```
…
```
## Collecting variable from file.
```

```
## Summarising variable across site
```

```
## Simple feature collection with 72 features and 3 fields
## Geometry type: POLYGON
## Dimension:     XY
## Bounding box:  xmin: -7.918481 ymin: 56.88169 xmax: -5.803766 ymax: 57.62605
## Geodetic CRS:  WGS 84
## # A tibble: 72 × 4
##    site  date_time             precip                                              geometry
##    <chr> <dttm>                 <dbl>                                         <POLYGON [°]>
##  1 A_2   2020-01-01 00:00:00 2.59e-16 ((-5.866424 57.59847, -5.866384 57.5983, -5.866304 5…
##  2 A_2   2020-01-01 01:00:00 5.04e-12 ((-5.866424 57.59847, -5.866384 57.5983, -5.866304 5…
##  3 A_2   2020-01-01 02:00:00 1.01e-11 ((-5.866424 57.59847, -5.866384 57.5983, -5.866304 5…
##  4 A_2   2020-01-01 03:00:00 1.51e-11 ((-5.866424 57.59847, -5.866384 57.5983, -5.866304 5…
##  5 A_2   2020-01-01 04:00:00 8.89e-10 ((-5.866424 57.59847, -5.866384 57.5983, -5.866304 5…
##  6 A_2   2020-01-01 05:00:00 1.76e- 9 ((-5.866424 57.59847, -5.866384 57.5983, -5.866304 5…
##  7 A_2   2020-01-01 06:00:00 2.64e- 9 ((-5.866424 57.59847, -5.866384 57.5983, -5.866304 5…
##  8 A_2   2020-01-01 07:00:00 3.65e- 9 ((-5.866424 57.59847, -5.866384 57.5983, -5.866304 5…
##  9 A_2   2020-01-01 08:00:00 4.66e- 9 ((-5.866424 57.59847, -5.866384 57.5983, -5.866304 5…
## 10 A_2   2020-01-01 09:00:00 5.68e- 9 ((-5.866424 57.59847, -5.866384 57.5983, -5.866304 5…
## # ℹ 62 more rows
```
