…
#> Extracting the coordinate names directly from the file
#> Variable extracted from file is precipitationCal
#> Processing site A_10
#> Processing site A_15
#> Processing site A_20
#> Processing site B_10
#> Processing site B_15
#> Processing site B_20
#> Processing site C_10
#> Processing site C_15
#> Processing site C_20
#> Processing site D_10
#> Processing site D_15
#> Processing site D_20
#> # A tibble: 138 x 3
#>    site  precipitationCal datetime           
#>    <chr>            <dbl> <dttm>             
#>  1 A_10            0      2020-06-01 00:00:00
#>  2 A_10            0      2020-06-01 00:00:00
#>  3 A_10            0      2020-06-01 00:00:00
#>  4 A_10            0      2020-06-01 00:00:00
#>  5 A_10            0      2020-06-01 00:00:00
#>  6 A_10            0      2020-06-01 00:00:00
#>  7 A_15            0.0136 2020-06-01 00:00:00
#>  8 A_15            0      2020-06-01 00:00:00
#>  9 A_15            0      2020-06-01 00:00:00
#> 10 A_15            0      2020-06-01 00:00:00
#> # i 128 more rows
```
…
The result is a `tibble` with the *site*, *data value* (in the above example *precipitationCal*) and the *datetime*.

### Processing all files

To demonstrate processing multiple files, we'll use the `map2_dfr()` function to progress through all the input files and bind the results together.


```r
# Note that messages are hidden here to avoid a lot of repetition
precip <- map_dfr(nc_files, .f = extract_site_grids_nc,
                  site_buffers = buffers, nc_crs = 4326)
precip
#> # A tibble: 4,140 x 3
#>    site  precipitationCal datetime           
#>    <chr>            <dbl> <dttm>             
#>  1 A_10            0      2020-06-01 00:00:00
#>  2 A_10            0      2020-06-01 00:00:00
#>  3 A_10            0      2020-06-01 00:00:00
#>  4 A_10            0      2020-06-01 00:00:00
#>  5 A_10            0      2020-06-01 00:00:00
#>  6 A_10            0      2020-06-01 00:00:00
#>  7 A_15            0.0136 2020-06-01 00:00:00
#>  8 A_15            0      2020-06-01 00:00:00
#>  9 A_15            0      2020-06-01 00:00:00
#> 10 A_15            0      2020-06-01 00:00:00
#> # i 4,130 more rows
```
…
If a particular date(s), requested in `dates_to_extract` is not present in the data, a message will be printed out specifying the missing date(s).

### Providing details on the variables to extract

By default `extract_site_grids_nc()` will try its best to figure out which variable to extract. However, if this can be specified via the


```r
extract_site_grids_nc(nc_file = nc_files[1], site_buffers = buffers, nc_crs = 4326,
                      nc_var_name = "precipitationCal")
#> # A tibble: 138 x 3
#>    site  precipitationCal datetime           
#>    <chr>            <dbl> <dttm>             
#>  1 A_10            0      2020-06-01 00:00:00
#>  2 A_10            0      2020-06-01 00:00:00
#>  3 A_10            0      2020-06-01 00:00:00
#>  4 A_10            0      2020-06-01 00:00:00
#>  5 A_10            0      2020-06-01 00:00:00
#>  6 A_10            0      2020-06-01 00:00:00
#>  7 A_15            0.0136 2020-06-01 00:00:00
#>  8 A_15            0      2020-06-01 00:00:00
#>  9 A_15            0      2020-06-01 00:00:00
#> 10 A_15            0      2020-06-01 00:00:00
#> # i 128 more rows
```
…
