Package Overview • satpoint
…
#> Extracting the coordinate names directly from the file
#> Variable extracted from file is precipitationCal
#> Processing site A_10
#> Processing site A_15
#> Processing site A_20
#> Processing site B_10
#> Processing site B_15
#> Processing site B_20
#> Processing site C_10
#> Processing site C_15
#> Processing site C_20
#> Processing site D_10
#> Processing site D_15
#> Processing site D_20
#> # A tibble: 138 × 3
#>    site  precipitationCal datetime           
#>    <chr>            <dbl> <dttm>             
#>  1 A_10            0      2020-06-01 00:00:00
#>  2 A_10            0      2020-06-01 00:00:00
#>  3 A_10            0      2020-06-01 00:00:00
#>  4 A_10            0      2020-06-01 00:00:00
#>  5 A_10            0      2020-06-01 00:00:00
#>  6 A_10            0      2020-06-01 00:00:00
#>  7 A_15            0.0136 2020-06-01 00:00:00
#>  8 A_15            0      2020-06-01 00:00:00
#>  9 A_15            0      2020-06-01 00:00:00
#> 10 A_15            0      2020-06-01 00:00:00
#> # ℹ 128 more rows
…
Processing all files

To demonstrate processing multiple files, we’ll use the
map() function to progress through all the input files and
bind the results together.

# Note that messages are hidden here to avoid a lot of repetition
precip <- map(nc_files, .f = extract_site_grids_nc,
              sites = buffers, nc_crs = 4326) %>%
  list_rbind()
precip
#> # A tibble: 4,140 × 3
#>    site  precipitationCal datetime           
#>    <chr>            <dbl> <dttm>             
#>  1 A_10            0      2020-06-01 00:00:00
#>  2 A_10            0      2020-06-01 00:00:00
#>  3 A_10            0      2020-06-01 00:00:00
#>  4 A_10            0      2020-06-01 00:00:00
#>  5 A_10            0      2020-06-01 00:00:00
#>  6 A_10            0      2020-06-01 00:00:00
#>  7 A_15            0.0136 2020-06-01 00:00:00
#>  8 A_15            0      2020-06-01 00:00:00
#>  9 A_15            0      2020-06-01 00:00:00
#> 10 A_15            0      2020-06-01 00:00:00
#> # ℹ 4,130 more rows
…
